Curso básico de análisis de datos con R - 6 Preprocesamiento de datos
…
6.14 Ejercicios

El fichero genetica, contiene información de la análitica fisiológica, microbiológica y bioquímica, de una muestra de ratas tratadas con distintos tratamientos.

Crear un tibble con los datos del fichero.

Solución

library(tidyverse)
df <- read_csv('https://raw.githubusercontent.com/asalber/manual-r/master/datos/genetica.csv')
df

# A tibble: 21 × 20
   códig…¹ Trata…² mas c…³    IHS     IES     ITS    IAS gluco…⁴ pbmc(…⁵ CD4(c…⁶
   <chr>   <chr>     <dbl>  <dbl>   <dbl>   <dbl>  <dbl>   <dbl>   <dbl>   <dbl>
 1 Ct-A1   Control    236  0.0433 0.00198 0.00178 4.3e-4    54.1  7.01e3   401. 
 2 Ct-A2   Control    202. 0.044  0.002   0.0017  8  e-4    50.7  2.42e6   553. 
 3 Ct-B1   Control    246. 0.042  0.002   0.0015  5  e-4    72.2  6.19e6   724. 
 4 Ct-B2   Control    237. 0.0475 0.00238 0.00203 4.1e-4    95.3  1.79e6  2213. 
 5 Ct-B3   Control    231. 0.0499 0.002   0.0011  5  e-4    93.1  5.82e7  4518. 
 6 Ct-C1   Control    235. 0.05   0.0021  0.0033  1.4e-3    22.6  3.39e7   775. 
 7 Ct-C2   Control    228. 0.05   0.0018  0.0031  5.9e-4    29.4  7.5 e3    83.4
 8 Dx-1    Dexame…    181. 0.061  0.00155 0.0005  1.2e-4    56.0  7.68e2    10  
 9 Dx-2    Dexame…    198. 0.063  0.00191 0.0011  2  e-4   119.   1.41e6    15  
10 Dx-3    Dexame…    201. 0.0577 0.0017  0.0001  1  e-4   119.   7.12e3    11  
# … with 11 more rows, 10 more variables: `monoc(cel/mL)` <dbl>,
#   `IHQ: linfB(cel/mm2)` <dbl>, `pulp.blan(Tx1)` <dbl>,
#   `microorg(log nº/g)` <dbl>, `AI2(absorb)` <dbl>, `gluc(mmol/L)` <dbl>,
#   `TAG(mmol/L)` <dbl>, `col(mmol/L)` <dbl>, `HDL(mmol/L)` <dbl>,
#   `ins(pmol/L)` <dbl>, and abbreviated variable names ¹​`código muestra`,
#   ²​Tratamiento, ³​`mas cor (g)`, ⁴​`glucog(mg/g)`, ⁵​`pbmc(cel/mL)`,
#   ⁶​`CD4(cel/µL)`
…
