7 Gráficos y visualización de datos – Curso básico de análisis de datos con R
…
7.13 Ejercicios

Ejercicio 7.1 El fichero neonatos contiene información sobre los recién nacidos en un hospital durante un año.

Crear un tibble con los datos del fichero.

Solución

library(tidyverse)
df <- read_csv('https://raw.githubusercontent.com/asalber/manual-r/master/datos/neonatos.csv')
df

# A tibble: 320 × 8
    peso sexo   edad        tabaco cigarros tabaco.antes apgar1 apgar5
   <dbl> <chr>  <chr>       <chr>     <dbl> <chr>         <dbl>  <dbl>
 1  3.28 hombre mayor de 20 No            0 No                7      7
 2  3.49 hombre mayor de 20 No            0 No                7      8
 3  2.88 hombre mayor de 20 No            0 Si                5      6
 4  3.42 hombre mayor de 20 No            0 No                8      8
 5  3.31 hombre mayor de 20 No            0 No                6      7
 6  3.53 hombre mayor de 20 No            0 No                8      8
 7  3.46 hombre mayor de 20 No            0 No                7      8
 8  3.12 hombre mayor de 20 No            0 No                7      7
 9  2.77 hombre mayor de 20 No            0 No                5      5
10  3.31 hombre mayor de 20 No            0 No                7      8
# ℹ 310 more rows
…
