Curso básico de análisis de datos con R - 8 Análisis Estadísticos
…
Interpretación: Existe una correlación fuerte entre la nota A y la nota C, que además es estadísticamente muy significativa.

8.7 Ejercicios

El fichero genetica, contiene información de la análitica fisiológica, microbiológica y bioquímica, de una muestra de ratas tratadas con distintos tratamientos.

Crear un tibble con los datos del fichero.

Solución

library(tidyverse)
df <- read_csv('https://raw.githubusercontent.com/asalber/manual-r/master/datos/genetica.csv')
df

# A tibble: 21 × 20
   `código muestra` Tratamiento  `mas cor (g)`    IHS     IES     ITS     IAS
   <chr>            <chr>                <dbl>  <dbl>   <dbl>   <dbl>   <dbl>
 1 Ct-A1            Control               236  0.0433 0.00198 0.00178 0.00043
 2 Ct-A2            Control               202. 0.044  0.002   0.0017  0.0008 
 3 Ct-B1            Control               246. 0.042  0.002   0.0015  0.0005 
 4 Ct-B2            Control               237. 0.0475 0.00238 0.00203 0.00041
 5 Ct-B3            Control               231. 0.0499 0.002   0.0011  0.0005 
 6 Ct-C1            Control               235. 0.05   0.0021  0.0033  0.0014 
 7 Ct-C2            Control               228. 0.05   0.0018  0.0031  0.00059
 8 Dx-1             Dexametasona          181. 0.061  0.00155 0.0005  0.00012
 9 Dx-2             Dexametasona          198. 0.063  0.00191 0.0011  0.0002 
10 Dx-3             Dexametasona          201. 0.0577 0.0017  0.0001  0.0001 
# … with 11 more rows, and 13 more variables: `glucog(mg/g)` <dbl>,
#   `pbmc(cel/mL)` <dbl>, `CD4(cel/µL)` <dbl>, `monoc(cel/mL)` <dbl>,
#   `IHQ: linfB(cel/mm2)` <dbl>, `pulp.blan(Tx1)` <dbl>,
#   `microorg(log nº/g)` <dbl>, `AI2(absorb)` <dbl>, `gluc(mmol/L)` <dbl>,
#   `TAG(mmol/L)` <dbl>, `col(mmol/L)` <dbl>, `HDL(mmol/L)` <dbl>,
#   `ins(pmol/L)` <dbl>
…
